# Command:
#   > ./chroot_setup.sh chroot_ZendServer5.lst /QOpenSys/root_path
#

#
# tar list
# ( example: /QOpenSys/usr/lib/nls/loc
#    mkdir -p $CHROOT_DIR/QOpenSys/usr/lib/nls/loc
#    cd /QOpenSys/usr/lib/nls
#    tar -chf $CHROOT_DIR/QOpenSys/usr/lib/nls/loc.tar loc
#    cd $CHROOT_DIR/QOpenSys/usr/lib/nls
#    tar -xf loc.tar
# )
#
:tar_dir
/usr/local/zendsvr6


